Case-study: Correcting for measurement error in the European Social Survey
…
selected_vars <- c("trstprl", "trstplt", "trstprt",
                   "stfedu", "stfhlth", "psppsgv",
                   "psppipl", "ptcpplt", "ppltrst",
                   "polintr", "stflife", "stfeco",
                   "agea","eisced")

composite_scores <- c("poltrst", "serv", "systmrsp")

all_vars <- c(composite_scores, selected_vars) # for using later

So far we the original tibble with a few extra columns containing the composite sum scores:

ess7es
#> # A tibble: 1,925 x 604
#>    name  essround edition proddate  idno cntry tvtot tvpol ppltrst pplfair
#>    <chr>    <dbl> <chr>   <chr>    <dbl> <chr> <dbl> <dbl> <dbl+l> <dbl+l>
#>  1 ESS7…     7.00 2.1     01.12.2…  1.00 ES    2     2     6       6      
#>  2 ESS7…     7.00 2.1     01.12.2…  3.00 ES    2     2     6       6      
#>  3 ESS7…     7.00 2.1     01.12.2…  4.00 ES    3     3     6       5      
#>  4 ESS7…     7.00 2.1     01.12.2…  5.00 ES    2     1     7       7      
#>  5 ESS7…     7.00 2.1     01.12.2…  6.00 ES    5     4     10      10     
#>  6 ESS7…     7.00 2.1     01.12.2…  7.00 ES    7     2     7       5      
#>  7 ESS7…     7.00 2.1     01.12.2…  8.00 ES    7     7     2       8      
#>  8 ESS7…     7.00 2.1     01.12.2… 10.0  ES    6     5     2       8      
#>  9 ESS7…     7.00 2.1     01.12.2… 12.0  ES    0     <NA>  5       7      
#> 10 ESS7…     7.00 2.1     01.12.2… 14.0  ES    3     1     3       3      
#> # ... with 1,915 more rows, and 594 more variables: pplhlp <dbl+lbl>,
#> #   polintr <dbl+lbl>, psppsgv <dbl+lbl>, actrolg <dbl+lbl>,
#> #   psppipl <dbl+lbl>, cptppol <dbl+lbl>, ptcpplt <dbl+lbl>,
#> #   etapapl <dbl+lbl>, trstprl <dbl+lbl>, trstlgl <dbl+lbl>,
#> #   trstplc <dbl+lbl>, trstplt <dbl+lbl>, trstprt <dbl+lbl>,
#> #   trstep <dbl+lbl>, trstun <dbl+lbl>, vote <dbl+lbl>,
#> #   prtvtbat <dbl+lbl>, prtvtcbe <dbl+lbl>, prtvtech <dbl+lbl>,
#> #   prtvtdcz <dbl+lbl>, prtvede1 <dbl+lbl>, prtvede2 <dbl+lbl>,
#> #   prtvtcdk <dbl+lbl>, prtvteee <dbl+lbl>, prtvtces <dbl+lbl>,
…
